%YAML 1.1
%TAG !u! tag:unity3d.com,2011:
--- !u!1045 &1
EditorBuildSettings:
  m_ObjectHideFlags: 0
  serializedVersion: 2
  m_Scenes:
  - enabled: 1
    path: Assets/MainMenu.unity
    guid: 2bb69f8d37ca22d4292a8bd0f1abc91b
  - enabled: 1
    path: Assets/Level1.unity
    guid: 4289ba6c122b98a458ed8ddbc0a4547a
  - enabled: 1
    path: Assets/Level2.unity
    guid: 82c233c48da42b84ba7355c4a515cb47
