%YAML 1.1
%TAG !u! tag:unity3d.com,2011:
--- !u!1001 &100100000
Prefab:
  m_ObjectHideFlags: 1
  serializedVersion: 2
  m_Modification:
    m_TransformParent: {fileID: 0}
    m_Modifications: []
    m_RemovedComponents: []
  m_ParentPrefab: {fileID: 0}
  m_RootGameObject: {fileID: 1897892493835692}
  m_IsPrefabParent: 1
--- !u!1 &1897892493835692
GameObject:
  m_ObjectHideFlags: 0
  m_PrefabParentObject: {fileID: 0}
  m_PrefabInternal: {fileID: 100100000}
  serializedVersion: 5
  m_Component:
  - component: {fileID: 4862859868091106}
  - component: {fileID: 114033815348469066}
  m_Layer: 0
  m_Name: HitEffects
  m_TagString: Untagged
  m_Icon: {fileID: 0}
  m_NavMeshLayer: 0
  m_StaticEditorFlags: 0
  m_IsActive: 1
--- !u!4 &4862859868091106
Transform:
  m_ObjectHideFlags: 1
  m_PrefabParentObject: {fileID: 0}
  m_PrefabInternal: {fileID: 100100000}
  m_GameObject: {fileID: 1897892493835692}
  m_LocalRotation: {x: 0, y: 0, z: 0, w: 1}
  m_LocalPosition: {x: 510.44324, y: 18.261883, z: 220.60873}
  m_LocalScale: {x: 1, y: 1, z: 1}
  m_Children: []
  m_Father: {fileID: 0}
  m_RootOrder: 0
  m_LocalEulerAnglesHint: {x: 0, y: 0, z: 0}
--- !u!114 &114033815348469066
MonoBehaviour:
  m_ObjectHideFlags: 1
  m_PrefabParentObject: {fileID: 0}
  m_PrefabInternal: {fileID: 100100000}
  m_GameObject: {fileID: 1897892493835692}
  m_Enabled: 1
  m_EditorHideFlags: 0
  m_Script: {fileID: 11500000, guid: 99be41ddef479f646bb19f6695490799, type: 3}
  m_Name: 
  m_EditorClassIdentifier: 
  HitEffectsPrefabs:
  - Name: Humanoid
    Prefab: {fileID: 1556746378702326, guid: 9dbacae368ee21342b14e572f296f3e7, type: 2}
  - Name: Dirt
    Prefab: {fileID: 1167610393746666, guid: 70b79345b683bf6468842df5316846ee, type: 2}
  - Name: Wood
    Prefab: {fileID: 1798233077210968, guid: 0825fff3ae436344689a2e1cd738a746, type: 2}
  - Name: Metal
    Prefab: {fileID: 1226783458576766, guid: f55b072edc3a3404b97f5b680a9811d0, type: 2}
  - Name: Concrete
    Prefab: {fileID: 1666846049141940, guid: 0d30ff991cd1ed64d85a7b84dbaac6c8, type: 2}
  - Name: Asphalt
    Prefab: {fileID: 1587453586972994, guid: b8365ed0b6b2fa54d8fc82df78239405, type: 2}
